[
  {
    "nombre":"Kevin",
    "apellido":"Chong",
    "edad":25
  },
  {
    "nombre":"Erika",
    "apellido":"Julian",
    "edad":24
  },
  {
    "nombre":"Wilson",
    "apellido":"Chong",
    "edad":45
  },
  {
    "nombre":"Alexandra",
    "apellido":"Benavides",
    "edad":46
  }
]
